// Jest Snapshot v1, https://goo.gl/fbAQLP

exports[`CategoryList should render a loader if there are no categories, and call getCategories 1`] = `
ShallowWrapper {
  Symbol(enzyme.__root__): [Circular],
  Symbol(enzyme.__unrendered__): <CategoryList
    categories={Array []}
    getCategories={
      [MockFunction] {
        "calls": Array [
          Array [],
        ],
        "results": Array [
          Object {
            "isThrow": false,
            "value": undefined,
          },
        ],
      }
    }
  />,
  Symbol(enzyme.__renderer__): Object {
    "batchedUpdates": [Function],
    "getNode": [Function],
    "render": [Function],
    "simulateError": [Function],
    "simulateEvent": [Function],
    "unmount": [Function],
  },
  Symbol(enzyme.__node__): Object {
    "instance": null,
    "key": undefined,
    "nodeType": "host",
    "props": Object {
      "children": Array [
        null,
        <Loader
          width="100px"
        />,
      ],
      "className": undefined,
    },
    "ref": null,
    "rendered": Array [
      null,
      Object {
        "instance": null,
        "key": undefined,
        "nodeType": "function",
        "props": Object {
          "width": "100px",
        },
        "ref": null,
        "rendered": null,
        "type": [Function],
      },
    ],
    "type": "div",
  },
  Symbol(enzyme.__nodes__): Array [
    Object {
      "instance": null,
      "key": undefined,
      "nodeType": "host",
      "props": Object {
        "children": Array [
          null,
          <Loader
            width="100px"
          />,
        ],
        "className": undefined,
      },
      "ref": null,
      "rendered": Array [
        null,
        Object {
          "instance": null,
          "key": undefined,
          "nodeType": "function",
          "props": Object {
            "width": "100px",
          },
          "ref": null,
          "rendered": null,
          "type": [Function],
        },
      ],
      "type": "div",
    },
  ],
  Symbol(enzyme.__options__): Object {
    "adapter": ReactSixteenAdapter {
      "options": Object {
        "enableComponentDidUpdateOnSetState": true,
        "lifecycles": Object {
          "componentDidUpdate": Object {
            "onSetState": true,
          },
          "getDerivedStateFromProps": true,
          "getSnapshotBeforeUpdate": true,
          "setState": Object {
            "skipsComponentDidUpdateOnNullish": true,
          },
        },
      },
    },
  },
}
`;

exports[`CategoryList should render the categories 1`] = `
ShallowWrapper {
  Symbol(enzyme.__root__): [Circular],
  Symbol(enzyme.__unrendered__): <CategoryList
    categories={
      Array [
        Object {
          "name": "1",
        },
        Object {
          "name": "2",
        },
        Object {
          "name": "3",
        },
      ]
    }
    getCategories={[MockFunction]}
  />,
  Symbol(enzyme.__renderer__): Object {
    "batchedUpdates": [Function],
    "getNode": [Function],
    "render": [Function],
    "simulateError": [Function],
    "simulateEvent": [Function],
    "unmount": [Function],
  },
  Symbol(enzyme.__node__): Object {
    "instance": null,
    "key": undefined,
    "nodeType": "host",
    "props": Object {
      "children": Array [
        null,
        <ul>
          <Category
            cat={
              Object {
                "name": "1",
              }
            }
            showCat={[Function]}
          />
          <Category
            cat={
              Object {
                "name": "2",
              }
            }
            showCat={[Function]}
          />
          <Category
            cat={
              Object {
                "name": "3",
              }
            }
            showCat={[Function]}
          />
        </ul>,
      ],
      "className": undefined,
    },
    "ref": null,
    "rendered": Array [
      null,
      Object {
        "instance": null,
        "key": undefined,
        "nodeType": "host",
        "props": Object {
          "children": Array [
            <Category
              cat={
                Object {
                  "name": "1",
                }
              }
              showCat={[Function]}
            />,
            <Category
              cat={
                Object {
                  "name": "2",
                }
              }
              showCat={[Function]}
            />,
            <Category
              cat={
                Object {
                  "name": "3",
                }
              }
              showCat={[Function]}
            />,
          ],
        },
        "ref": null,
        "rendered": Array [
          Object {
            "instance": null,
            "key": "1",
            "nodeType": "function",
            "props": Object {
              "cat": Object {
                "name": "1",
              },
              "showCat": [Function],
            },
            "ref": null,
            "rendered": null,
            "type": [Function],
          },
          Object {
            "instance": null,
            "key": "2",
            "nodeType": "function",
            "props": Object {
              "cat": Object {
                "name": "2",
              },
              "showCat": [Function],
            },
            "ref": null,
            "rendered": null,
            "type": [Function],
          },
          Object {
            "instance": null,
            "key": "3",
            "nodeType": "function",
            "props": Object {
              "cat": Object {
                "name": "3",
              },
              "showCat": [Function],
            },
            "ref": null,
            "rendered": null,
            "type": [Function],
          },
        ],
        "type": "ul",
      },
    ],
    "type": "div",
  },
  Symbol(enzyme.__nodes__): Array [
    Object {
      "instance": null,
      "key": undefined,
      "nodeType": "host",
      "props": Object {
        "children": Array [
          null,
          <ul>
            <Category
              cat={
                Object {
                  "name": "1",
                }
              }
              showCat={[Function]}
            />
            <Category
              cat={
                Object {
                  "name": "2",
                }
              }
              showCat={[Function]}
            />
            <Category
              cat={
                Object {
                  "name": "3",
                }
              }
              showCat={[Function]}
            />
          </ul>,
        ],
        "className": undefined,
      },
      "ref": null,
      "rendered": Array [
        null,
        Object {
          "instance": null,
          "key": undefined,
          "nodeType": "host",
          "props": Object {
            "children": Array [
              <Category
                cat={
                  Object {
                    "name": "1",
                  }
                }
                showCat={[Function]}
              />,
              <Category
                cat={
                  Object {
                    "name": "2",
                  }
                }
                showCat={[Function]}
              />,
              <Category
                cat={
                  Object {
                    "name": "3",
                  }
                }
                showCat={[Function]}
              />,
            ],
          },
          "ref": null,
          "rendered": Array [
            Object {
              "instance": null,
              "key": "1",
              "nodeType": "function",
              "props": Object {
                "cat": Object {
                  "name": "1",
                },
                "showCat": [Function],
              },
              "ref": null,
              "rendered": null,
              "type": [Function],
            },
            Object {
              "instance": null,
              "key": "2",
              "nodeType": "function",
              "props": Object {
                "cat": Object {
                  "name": "2",
                },
                "showCat": [Function],
              },
              "ref": null,
              "rendered": null,
              "type": [Function],
            },
            Object {
              "instance": null,
              "key": "3",
              "nodeType": "function",
              "props": Object {
                "cat": Object {
                  "name": "3",
                },
                "showCat": [Function],
              },
              "ref": null,
              "rendered": null,
              "type": [Function],
            },
          ],
          "type": "ul",
        },
      ],
      "type": "div",
    },
  ],
  Symbol(enzyme.__options__): Object {
    "adapter": ReactSixteenAdapter {
      "options": Object {
        "enableComponentDidUpdateOnSetState": true,
        "lifecycles": Object {
          "componentDidUpdate": Object {
            "onSetState": true,
          },
          "getDerivedStateFromProps": true,
          "getSnapshotBeforeUpdate": true,
          "setState": Object {
            "skipsComponentDidUpdateOnNullish": true,
          },
        },
      },
    },
  },
}
`;

exports[`CategoryList should show the StoreList if a category is shown 1`] = `
ShallowWrapper {
  Symbol(enzyme.__root__): [Circular],
  Symbol(enzyme.__unrendered__): <CategoryList
    categories={
      Array [
        Object {
          "name": "1",
        },
        Object {
          "name": "2",
        },
        Object {
          "name": "3",
        },
      ]
    }
    getCategories={[MockFunction]}
  />,
  Symbol(enzyme.__renderer__): Object {
    "batchedUpdates": [Function],
    "getNode": [Function],
    "render": [Function],
    "simulateError": [Function],
    "simulateEvent": [Function],
    "unmount": [Function],
  },
  Symbol(enzyme.__node__): Object {
    "instance": null,
    "key": undefined,
    "nodeType": "host",
    "props": Object {
      "children": Array [
        <StoreList
          cat={
            Object {
              "name": "1",
            }
          }
          hideCat={[Function]}
        />,
        <ul>
          <Category
            cat={
              Object {
                "name": "1",
              }
            }
            showCat={[Function]}
          />
          <Category
            cat={
              Object {
                "name": "2",
              }
            }
            showCat={[Function]}
          />
          <Category
            cat={
              Object {
                "name": "3",
              }
            }
            showCat={[Function]}
          />
        </ul>,
      ],
      "className": undefined,
    },
    "ref": null,
    "rendered": Array [
      Object {
        "instance": null,
        "key": undefined,
        "nodeType": "class",
        "props": Object {
          "cat": Object {
            "name": "1",
          },
          "hideCat": [Function],
        },
        "ref": null,
        "rendered": null,
        "type": [Function],
      },
      Object {
        "instance": null,
        "key": undefined,
        "nodeType": "host",
        "props": Object {
          "children": Array [
            <Category
              cat={
                Object {
                  "name": "1",
                }
              }
              showCat={[Function]}
            />,
            <Category
              cat={
                Object {
                  "name": "2",
                }
              }
              showCat={[Function]}
            />,
            <Category
              cat={
                Object {
                  "name": "3",
                }
              }
              showCat={[Function]}
            />,
          ],
        },
        "ref": null,
        "rendered": Array [
          Object {
            "instance": null,
            "key": "1",
            "nodeType": "function",
            "props": Object {
              "cat": Object {
                "name": "1",
              },
              "showCat": [Function],
            },
            "ref": null,
            "rendered": null,
            "type": [Function],
          },
          Object {
            "instance": null,
            "key": "2",
            "nodeType": "function",
            "props": Object {
              "cat": Object {
                "name": "2",
              },
              "showCat": [Function],
            },
            "ref": null,
            "rendered": null,
            "type": [Function],
          },
          Object {
            "instance": null,
            "key": "3",
            "nodeType": "function",
            "props": Object {
              "cat": Object {
                "name": "3",
              },
              "showCat": [Function],
            },
            "ref": null,
            "rendered": null,
            "type": [Function],
          },
        ],
        "type": "ul",
      },
    ],
    "type": "div",
  },
  Symbol(enzyme.__nodes__): Array [
    Object {
      "instance": null,
      "key": undefined,
      "nodeType": "host",
      "props": Object {
        "children": Array [
          <StoreList
            cat={
              Object {
                "name": "1",
              }
            }
            hideCat={[Function]}
          />,
          <ul>
            <Category
              cat={
                Object {
                  "name": "1",
                }
              }
              showCat={[Function]}
            />
            <Category
              cat={
                Object {
                  "name": "2",
                }
              }
              showCat={[Function]}
            />
            <Category
              cat={
                Object {
                  "name": "3",
                }
              }
              showCat={[Function]}
            />
          </ul>,
        ],
        "className": undefined,
      },
      "ref": null,
      "rendered": Array [
        Object {
          "instance": null,
          "key": undefined,
          "nodeType": "class",
          "props": Object {
            "cat": Object {
              "name": "1",
            },
            "hideCat": [Function],
          },
          "ref": null,
          "rendered": null,
          "type": [Function],
        },
        Object {
          "instance": null,
          "key": undefined,
          "nodeType": "host",
          "props": Object {
            "children": Array [
              <Category
                cat={
                  Object {
                    "name": "1",
                  }
                }
                showCat={[Function]}
              />,
              <Category
                cat={
                  Object {
                    "name": "2",
                  }
                }
                showCat={[Function]}
              />,
              <Category
                cat={
                  Object {
                    "name": "3",
                  }
                }
                showCat={[Function]}
              />,
            ],
          },
          "ref": null,
          "rendered": Array [
            Object {
              "instance": null,
              "key": "1",
              "nodeType": "function",
              "props": Object {
                "cat": Object {
                  "name": "1",
                },
                "showCat": [Function],
              },
              "ref": null,
              "rendered": null,
              "type": [Function],
            },
            Object {
              "instance": null,
              "key": "2",
              "nodeType": "function",
              "props": Object {
                "cat": Object {
                  "name": "2",
                },
                "showCat": [Function],
              },
              "ref": null,
              "rendered": null,
              "type": [Function],
            },
            Object {
              "instance": null,
              "key": "3",
              "nodeType": "function",
              "props": Object {
                "cat": Object {
                  "name": "3",
                },
                "showCat": [Function],
              },
              "ref": null,
              "rendered": null,
              "type": [Function],
            },
          ],
          "type": "ul",
        },
      ],
      "type": "div",
    },
  ],
  Symbol(enzyme.__options__): Object {
    "adapter": ReactSixteenAdapter {
      "options": Object {
        "enableComponentDidUpdateOnSetState": true,
        "lifecycles": Object {
          "componentDidUpdate": Object {
            "onSetState": true,
          },
          "getDerivedStateFromProps": true,
          "getSnapshotBeforeUpdate": true,
          "setState": Object {
            "skipsComponentDidUpdateOnNullish": true,
          },
        },
      },
    },
  },
}
`;
